{
	"miniprogramRoot": "miniprogram/",
	"pluginRoot": "plugin/",
	"compileType": "plugin",
	"setting": {
		"urlCheck": false,
		"es6": true,
		"postcss": true,
		"minified": true,
		"newFeature": true
	},
	"appid": "wx9511b7c38d170183",
	"projectname": "wx-forum-saas",
	"libVersion": "2.3.0",
	"condition": {
		"search": {
			"current": -1,
			"list": []
		},
		"conversation": {
			"current": -1,
			"list": []
		},
		"plugin": {
			"current": 1,
			"list": [
				{
					"id": -1,
					"name": "授权",
					"pathName": "pages/authorization/authorization",
					"query": ""
				},
				{
					"id": 1,
					"name": "我的",
					"pathName": "pages/my/my"
				}
			]
		},
		"game": {
			"list": []
		},
		"miniprogram": {
			"current": -1,
			"list": []
		}
	}
}